{
  "level":14,
  "size":[6,10],
  "swX":{"count":1,"symbol":["x1"],
    "x1":{"type":1,"active":false,"location":[3,4],"bridge":"c1"}},
    "swQ":{"count":0,"symbol":[]},
    "swO":{"count":0,"symbol":[]},
    "bridge":{"count":1,"symbol":["c1"],
      "c1":{"times_active":0,"active":false,"location":[[2,5],[2,6]]}},
      "start":[1,1],"end":[4,7],
      "box":{"state":2,"symbol":"#","location":[[1,1]]},
      "tiles":{"orange":2,"rock":1,"space":0},
      "maps":[[1,1,1,0,0,0,0,0,0,0],
      [1,1,1,1,1,0,0,0,0,0],
      [1,1,1,1,1,0,0,2,1,0],
      [0,1,1,1,"x1",1,1,1,1,1],
      [0,0,0,0,0,1,1,0,1,1],
      [0,0,0,0,0,1,1,1,1,0]]
}