{
"level":15,
"size":[7,10],
"swX":{
  "count":0,
  "symbol":[]
 },
"swQ":{"count":2,"symbol":["q1", "q2"],
  "q1":{"type":0,"active":false,"location":[4,5],"bridge":"c1"},
  "q2":{"type":0,"active":false,"location":[6,5],"bridge":"c2"}
  },
"swO":{"count":0,"symbol":[]},
"bridge":{"count":2,
"symbol":["c1","c2"],
"c1":{"times_active":0,"active":false,"location":[[3,7],[3,8]]},
"c2":{"times_active":0,"active":false,"location":[[2,6]]}},
"start":[1,1],
"end":[2,7],
"box":{"state":2,"symbol":"#","location":[[1,1]]},
"tiles":{"orange":2,"rock":1,"space":0},
"maps":[
[0,	  0,  1,	  1,	1,	  1,	  1,	1,	1,	  0],	
[0,	  "#",1,	  1,	1,	  1,	  1,	2,	2,	  0],	
[1,	  1,	1,	  1,	1,	  1,	  0,	0,	1,	  1],	
[1,	  1,	1,	  1,	2,	  1,	  1,	0,	0,	  1],	
[0,	  0,	0,	  1,	1,	  "q1",	  1,	1,	1,	1],	
[0,	  0,  0,	  1,	1,	  1,	  1,	1,	1,	  1],	
[0,	  0,	0,	  1,	1,	  "q2",	1,	1,	1,	  1]]
}