{"level": 1,
    "size": [6,15],
    "swX": {"count": 0,"symbol": []},
    "swQ": {"count": 0,"symbol": []},
    "swO": {"count": 0,"symbol": []},
    "bridge": {"count": 0,"symbol": []},
    "start": [3,1],"end": [1,13],
    "box": {"state": 2,"symbol": "#","location": [[3,1]]},
    "tiles": {"orange": 2,"rock": 1,"space": 0},
  "maps": [
  [0,0,0,0,0,0,1,1,1,1,0,0,1,1,1],
  [1,1,1,1,0,0,1,1,1,1,0,0,1,0,1],
  [1,1,1,1,0,0,1,1,1,1,0,0,1,1,1],
  [1,1,1,1,0,0,1,1,1,1,0,0,1,1,1],
  [1,"#",1,1,1,1,1,1,1,1,1,1,1,1,1],
  [1,1,1,1,0,0,1,1,1,1,0,0,0,0,0]
  ]
}