{"level": 5,
    "size": [10,15],
    "swX": {"count": 0,"symbol": []},
    "swQ": {"count": 0,"symbol": []},
    "swO": {"count": 0,"symbol": []},
    "bridge": {"count": 0,"symbol": []},
    "start": [3,0],"end": [4,13],
    "box": {"state": 2,"symbol": "#","location": [[3,0]]},
    "tiles": {"orange": 2,"rock": 1,"space": 0},
  "maps": [
  [0,0,0,0,0,1,1,1,1,1,1,0,0,0,0],
  [0,0,0,0,0,1,0,0,1,1,1,0,0,0,0],
  [0,0,0,0,0,1,0,0,1,1,1,1,1,0,0],
  ["#",1,1,1,1,1,0,0,0,0,0,1,1,1,1],
  [0,0,0,0,1,1,1,0,0,0,0,1,1,0,1],
  [0,0,0,0,1,1,1,0,0,0,0,0,1,1,1],
  [0,0,0,0,0,0,1,0,0,1,1,0,0,0,0],
  [0,0,0,0,0,0,1,1,1,1,1,0,0,0,0],
  [0,0,0,0,0,0,1,1,1,1,1,0,0,0,0],
  [0,0,0,0,0,0,0,1,1,1,0,0,0,0,0]
  ]
}